110 - 6
000
0
000000001010100

    000
    000
    0
    000000000010110

        000
        100
        01010

        110 - 6
        100
        01011

    100 - 4
    000
    1
    00000000010

        111 - 7
        100
        01100

        000
        100
        01101

000000

-------- test 5 -> 12
011
000
1
00000000010

    000
    000
    0
    000000000010110

        000
        100
        01010

        101
        100
        01011

    001
    000
    1
    00000000010

        000
        100
        01100

        011
        100
        01101

00
